{
    "returnTypes": {
        "start": "ast.AST",
        "eqtype": "ast.AST",
        "additive": "ast.rightKont",
        "multiplicative": "ast.rightKont",
        "negative": "ast.AST",
        "primary": "ast.AST",
        "integer": "ast.AST"
    },
    "tspegjs": {
        "customHeader": "import * as ast from './ast';\n"
    }
}